…
```r
        activity <- activity[ with (activity, { !(is.na(steps)) } ), ]
```

        ### 1. Calculate the total number of steps taken per day

```r
        daily <- group_by(activity, date)
        steps.daily <- summarise(daily, total = sum(steps))
        steps.daily
```

```
## # A tibble: 53 x 2
##    date                total
##    <dttm>              <int>
##  1 2012-10-02 00:00:00   126
##  2 2012-10-03 00:00:00 11352
##  3 2012-10-04 00:00:00 12116
##  4 2012-10-05 00:00:00 13294
##  5 2012-10-06 00:00:00 15420
##  6 2012-10-07 00:00:00 11015
##  7 2012-10-09 00:00:00 12811
##  8 2012-10-10 00:00:00  9900
##  9 2012-10-11 00:00:00 10304
## 10 2012-10-12 00:00:00 17382
## # ... with 43 more rows
```
…
## What is the average daily activity pattern?

        ### 1. Make a time series plot (i.e. ğšğš¢ğš™ğš = "ğš•") of the 5-minute interval (x-axis) and the average number of steps taken, averaged across all days (y-axis)


```r
        interval <- group_by(activity, interval)
        steps.interval <- summarise(interval, mean = mean(steps))
        steps.interval
```

```
## # A tibble: 288 x 2
##    interval   mean
##       <int>  <dbl>
##  1        0 1.72  
##  2        5 0.340 
##  3       10 0.132 
##  4       15 0.151 
##  5       20 0.0755
##  6       25 2.09  
##  7       30 0.528 
##  8       35 0.868 
##  9       40 0.    
## 10       45 1.47  
## # ... with 278 more rows
```
…
        ### 4. Make a histogram of the total number of steps taken each day and Calculate and report the mean and median total number of steps taken per day. Do these values differ from the estimates from the first part of the assignment? What is the impact of imputing missing data on the estimates of the total daily number of steps?


```r
        daily1 <- group_by(activity1, date)
        steps.daily1 <- summarise(daily1, total = sum(steps))
        steps.daily1
```

```
## # A tibble: 61 x 2
##    date                 total
##    <dttm>               <dbl>
##  1 2012-10-01 00:00:00 10766.
##  2 2012-10-02 00:00:00   126.
##  3 2012-10-03 00:00:00 11352.
##  4 2012-10-04 00:00:00 12116.
##  5 2012-10-05 00:00:00 13294.
##  6 2012-10-06 00:00:00 15420.
##  7 2012-10-07 00:00:00 11015.
##  8 2012-10-08 00:00:00 10766.
##  9 2012-10-09 00:00:00 12811.
## 10 2012-10-10 00:00:00  9900.
## # ... with 51 more rows
```
…
